Working with large datasets in SQL, R, and Python
…
## Error: Strings must match column names. Unknown columns: age

3.4.2) dplyr with SQL and databases

To connect to an SQLite or Postgres database we can use src_sqlite and src_postgres:

stackoverflow <- src_sqlite(file.path('data', 'stackoverflow-2016.db'))
users <- tbl(stackoverflow, 'users')
oldFolks <- users %>% filter(age > 75)
collect(oldFolks)

## # A tibble: 481 x 10
##    userid        creationdate      lastaccessdate
##     <int>               <chr>               <chr>
##  1    987 2008-08-11 12:14:17 2017-03-13 18:08:20
##  2   4668 2008-09-05 04:08:05 2017-03-13 21:19:14
##  3  17826 2008-09-18 15:12:29 2017-03-13 07:40:39
##  4  18149 2008-09-18 19:25:22 2017-03-13 19:31:17
##  5  18625 2008-09-19 07:46:06 2017-03-13 11:16:46
##  6  25809 2008-10-07 13:02:17 2017-03-13 20:29:46
##  7  33810 2008-11-03 23:47:11 2017-02-12 17:11:16
##  8  51090 2009-01-03 03:48:53 2016-11-29 06:24:50
##  9  60433 2009-01-29 23:32:25 2017-02-23 02:58:10
## 10  62596 2009-02-04 20:11:52 2017-03-09 22:15:32
## # ... with 471 more rows, and 7 more variables: location <chr>,
## #   reputation <int>, displayname <chr>, upvotes <int>,
## #   downvotes <int>, age <int>, accountid <int>
…
